﻿[
	{
    "_id":"c-100",
    "_parentId":"b-100",
    "_type":"component",
    "_component":"branchChart",
    "_classes":"",
    "title":"",
    "displayTitle":"",
    "body":"Você já criou anúncios no Facebook e está familiarizado com os três componentes principais: campanhas, conjuntos de anúncios e anúncios, coletivamente chamados de <strong>objetos de anúncio</strong>.",
    "instruction":"",
    "componentWidth": "80%",
    "verticalPadding": "",
    "align": "center",
    "fontSizeText":"2.75vmin",
    "fontSizeCaption":"2vmin",
    "fontColorText":"#ffffff",
    "fontColorCaption":"#000",
    "borderColor": "#ef4025",
    "backgroundColor": "#4267b2",
    "topText": "Campanha",
    "topCaption": "A campanha inclui o objetivo do anúncio",
    "midLeftText": "Conjunto de anúncios",
    "midRightText": "Conjunto de anúncios",
    "midCaption": "O conjunto de anúncios inclui público, posicionamentos, <br>programação de veiculação e orçamento",
    "bottomLeftOuterText": "Anúncio",
    "bottomLeftInnerText": "Anúncio",
    "bottomRightOuterText": "Anúncio",
    "bottomRightInnerText": "Anúncio",
    "bottomCaption": "O anúncio inclui criativo e mensagem"
	},
	{
		"_id": "c-110",
		"_parentId": "b-110",
		"_type": "component",
		"_component": "text",
		"_classes": "",
		"_layout": "full",
		"title": "Editar e atualizar no nível da campanha, do conjunto de anúncios ou do anúncio",
		"displayTitle": "",
		"body": "Lembre-se de que você definirá um objetivo de marketing (ou meta comercial) no nível da <strong>campanha </strong>, especificará as opções de veiculação (público, posicionamentos, programação e orçamento) no nível do <strong>conjunto de anúncios</strong> e adicionará seu criativo e texto no nível do <strong>anúncio</strong>.<br><br>Este curso mostrará como editar e atualizar muitas dessas opções. <br><br>Se você estiver apenas começando a trabalhar com a publicidade no Facebook, considere fazer os seguintes cursos do Blueprint antes de continuar com este:<br><br><ul><em><li>Criar anúncios do Facebook</li><li>Visão geral do leilão de anúncios e da veiculação</li></em></ul>",
		"instruction": "",
		"_isComplete": true,
		"_pageLevelProgress": {
			"_isEnabled": false
		}
	},

	{
		"_id": "c-120",
		"_parentId": "b-120",
		"_type": "component",
		"_component": "text",
		"_classes": "",
		"_layout": "full",
		"title": "Objetivos da aprendizagem",
		"displayTitle": "Objetivos da aprendizagem",
		"body": "No final deste curso, você poderá alcançar os seguintes objetivos:<ul><li>Usar o Gerenciador de Anúncios para localizar campanhas, conjuntos de anúncios e anúncios existentes.</li><li>Duplicar campanhas, conjuntos de anúncios e anúncios.</li><li>Editar conjuntos de anúncios e anúncios individualmente ou em escala.</li><li>Criar e editar anúncios com a ferramenta de importação/exportação.</li><li>Obter informações sobre ações avançadas, como teste A/B, marcações de campanha e regras automáticas.</li></ul>",
		"instruction": "",
		"_isComplete": true,
		"_pageLevelProgress": {
			"_isEnabled": true
		}
	},
	{
		"_id":"c-199",
		"_parentId":"b-199",
		"_type":"component",
		"_component":"co-jump",
		"_classes":"color-test",
		"title": "A seguir",
		"_preLinkBody":"Vamos ",
		"_linkBody":"identificar e localizar elementos editáveis",
		"_postLinkBody":" dos anúncios do Facebook e ver como encontrá-los e ajustá-los no Gerenciador de Anúncios.",
		"_link":"#/id/co-200",
		"_graphic":"adapt/css/assets/icon_nextPage.png",
		"_isComplete": true,
		"_pageLevelProgress": {
			"_isEnabled": false
		}
	},




	{
		"_id": "c-200",
		"_parentId": "b-200",
		"_type": "component",
		"_component": "text",
		"_classes": "",
		"_layout": "full",
		"title": "Introdução",
		"displayTitle": "",
		"body": "Depois que uma campanha for iniciada, ainda será possível ajustar a mensagem, o criativo, o orçamento, o posicionamento, a programação e o direcionamento.",
		"instruction": "",
		"_isComplete": false,
		"_pageLevelProgress": {
			"_isEnabled": false
		}
	},
	{
		"_id": "c-200b",
		"_parentId": "b-200",
		"_type": "component",
		"_component": "graphic",
		"_classes": "",
		"_layout": "full",
		"title": "Procurar no Gerenciador de Anúncios",
		"displayTitle": "Localizar conteúdo existente no Gerenciador de Anúncios",
		"body": "Antes de editar algum conteúdo, é necessário encontrá-lo. Procure campanhas, conjuntos de anúncios e anúncios acessando as guias correspondentes.",
		"instruction": "",
		"_graphic": {
			"src": "course/en/images/am_tabs.png",
			"alt": "Ferramenta de pesquisa"
		},
		"_isComplete": false,
		"_pageLevelProgress": {
			"_isEnabled": true
		}
	},
	{
		"_id": "c-210",
		"_parentId": "b-210",
		"_type": "component",
		"_component": "graphic",
		"_classes": "",
		"_layout": "full",
		"title": "Pesquisar no Gerenciador de Anúncios",
		"displayTitle": "",
		"body": "<div style='margin-top:-2.5em;'>Se você gerenciar uma grande quantidade de objetos de anúncio, há três opções adicionais no Gerenciador de Anúncios para ajudá-lo a rastrear objetos de anúncio específicos.<br><br><br><h2>Pesquisar</h2><br>Pesquise pelo nome ou número de identificação de uma campanha, conjunto de anúncios ou anúncio. </div>",
		"instruction": "",
		"_graphic": {
			"src": "course/en/images/am_search.png",
			"alt": "Ferramenta de pesquisa"
		},
		"_isComplete": false,
		"_pageLevelProgress": {
			"_isEnabled": true
		}
	},
	{
		"_id": "c-220",
		"_parentId": "b-220",
		"_type": "component",
		"_component": "graphic",
		"_classes": "",
		"_layout": "full",
		"title": "Filtrar no Gerenciador de Anúncios",
		"displayTitle": "",
		"body": "<h2>Filtros</h2><br>Filtre objetos de anúncio com base na veiculação, objetivo, tipo de compra, posicionamento e outros atributos.",
		"instruction": "",
		"_graphic": {
			"src": "course/en/images/am_filter.png",
			"alt": "Filtrar objetos de anúncio"
		},
		"_isComplete": false,
		"_pageLevelProgress": {
			"_isEnabled": true
		}
	},

	{
		"_id": "c-230",
		"_parentId": "b-230",
		"_type": "component",
		"_component": "text",
		"_classes": "",
		"_layout": "full",
		"title": "Aplicar vários filtros",
		"displayTitle": "",
		"body": "Aplique vários filtros selecionando o botão <span style='padding:.2em .4em;background-color:#C4D2E7;'><strong>+</strong></span> ao lado do botão <strong>Filtros</strong>. ",
		"instruction": "",
		"_isComplete": false,
		"_pageLevelProgress": {
			"_isEnabled": false
		}
	},
	{
		"_id": "c-230l",
		"_parentId": "b-230",
		"_type": "component",
		"_component": "graphic",
		"_classes": "",
		"_layout": "left",
		"title": "Adicionar filtro",
		"displayTitle": "",
		"body": "",
		"instruction": "",
		"_graphic": {
			"src": "course/en/images/filter_add.png",
			"alt": "Adicionar filtro"
		},
		"_isComplete": false,
		"_pageLevelProgress": {
			"_isEnabled": false
		}
	},

	{
		"_id": "c-230r",
		"_parentId": "b-230",
		"_type": "component",
		"_component": "graphic",
		"_classes": "",
		"_layout": "right",
		"title": "Vários filtros",
		"displayTitle": "",
		"body": "",
		"instruction": "",
		"_graphic": {
			"src": "course/en/images/filter_multi.png",
			"alt": "Adicionar vários filtros"
		},
		"_isComplete": false,
		"_pageLevelProgress": {
			"_isEnabled": false
		}
	},
	{
		"_id": "c-240",
		"_parentId": "b-240",
		"_type": "component",
		"_component": "graphic",
		"_classes": "",
		"_layout": "full",
		"title": "Localizar por data com a ferramenta de estatísticas",
		"displayTitle": "",
		"body": "<h2>Ferramenta de estatísticas</h2><br> Esta ferramenta pode ajudar você a exibir e a comparar por data. Um varejista pode examinar os anúncios de volta às aulas de anos anteriores com mais alto desempenho antes de iniciar a campanha deste ano.",
		"instruction": "",
		"_graphic": {
			"src": "course/en/images/stats_date.png",
			"alt": "Visualizar por intervalo de datas"
		},
		"_isComplete": false,
		"_pageLevelProgress": {
			"_isEnabled": true
		}
	},
	{
		"_id":"c-299",
		"_parentId":"b-299",
		"_type":"component",
		"_component":"co-jump",
		"_classes":"color-test",
		"title":"Avançar",
		"_preLinkBody":"É possível desenvolver rapidamente novos anúncios, reutilizando e atualizando aqueles que você já criou. Então, vamos ver como ",
		"_linkBody":"duplicar e modificar objetos de anúncio existentes",
		"_postLinkBody":" com o Gerenciador de Anúncios.",
		"_link":"#/id/co-300",
		"_graphic":"adapt/css/assets/icon_nextPage.png",
		"_isComplete": true,
		"_pageLevelProgress": {
			"_isEnabled": false
		}
	},





	{
		"_id":"c-300",
		"_parentId":"b-300",
		"_type":"component",
		"_component":"graphic",
		"_classes":"",
		"_layout":"full",
		"title":"Duplicar e modificar",
		"displayTitle":"",
		"body":"Na elaboração das estruturas de campanha, você poderá gerar objetos de anúncio vazios, além de poder duplicar anúncios, conjuntos de anúncios ou campanhas existentes com todos os respectivos criativos intactos e, então, modificar a cópia sem alterar o original. Em todos os casos, você poderá especificar a quantidade de cópias que deseja fazer.<br><br>Combine a duplicação e a modificação para solucionar alguns problemas comuns:<br><ul><li>Para fazer uma pequena atualização em um anúncio existente, mas manter as métricas da versão original e da nova separadas.</li><li>Para testes A/B de criativos, públicos ou posicionamentos. </li></ul>",
		"instruction":"",
		"_graphic": {
			"alt": "Duplicar anúncios",
			"src": "course/en/images/duplicate.png"
		},
		"_isComplete": false,
		"_pageLevelProgress": {
			"_isEnabled": true
		}
	},
	{
		"_id":"c-310",
		"_parentId":"b-310",
		"_type":"component",
		"_component":"text",
		"_classes":"",
		"_layout":"full",
		"title":"Orçamento para duplicatas",
		"displayTitle":"",
		"body":"Duplicar uma campanha também duplica todos os conjuntos de anúncios e anúncios nessa campanha; as campanhas duplicadas operam no mesmo limite de gastos que a campanha original. Os conjuntos de anúncios duplicados incluem todos os anúncios do conjunto de anúncios original e usam o mesmo orçamento do original. Os anúncios duplicados usarão o orçamento que pertence ao conjunto de anúncios em que foram colocados e não aumentarão o orçamento geral. <br><br>Você poderá optar por definir um novo orçamento no momento em que criar uma duplicata, e poderá editar os orçamentos de conjuntos de anúncios a qualquer momento. Lembre-se de que clicar em um botão verde no Gerenciador de Anúncios constitui um acordo sujeito a cobrança.<br><br><div class='textCompWapper'><div class='textCompLeftDiv'><img src='course/en/images/tip.png' class='textCompImageCenter'></div><!-- .textCompLeftDiv end --><div class='textCompRightDiv'>Não é possível editar o objetivo de uma campanha existente ou alterar o objetivo de uma campanha duplicada.<br><br>No entanto, os anunciantes podem duplicar conjuntos de anúncios ou anúncios existentes e adicioná-los a campanhas novas ou existentes que tenham objetivos diferentes das campanhas em que foram criados originalmente. </div><!-- .textCompRightDiv end --></div><!-- .textCompWrapper end --><br><br>Sempre que duplicar uma campanha, conjunto de anúncios ou anúncio, você poderá especificar o número de cópias a serem feitas e optar por um nome exclusivo. Além disso, é possível optar pela veiculação ativa ou escolher o mesmo status da campanha, conjunto de anúncios ou anúncio original.",
		"instruction":"",
		"_isComplete": true,
		"_pageLevelProgress": {
			"_isEnabled": true
		}
	},
	{
		"_id":"c-320l",
		"_parentId":"b-320",
		"_type":"component",
		"_component":"graphic",
		"_classes":"texture_concrete",
		"_layout":"left",
		"title":"Duplicar uma campanha",
		"displayTitle":"",
		"body":"",
		"instruction":"",
		"_graphic": {
			"alt": "Duplicar campanha",
			"src": "course/en/images/dupe_campaign.png"
		},
		"_isComplete": false,
		"_pageLevelProgress": {
			"_isEnabled": true
		}
	},
	{
		"_id":"c-320r",
		"_parentId":"b-320",
		"_type":"component",
		"_component":"text",
		"_classes":"texture_wood",
		"_layout":"right",
		"title":"Duplicar uma campanha",
		"displayTitle":"",
		"body":"É possível duplicar uma campanha:<ul><li>Com o mesmo objetivo do anúncio.</li></ul>",
		"instruction":"",
		"_isComplete": true,
		"_pageLevelProgress": {
			"_isEnabled": false
		}
	},
	{
		"_id":"c-330l",
		"_parentId":"b-330",
		"_type":"component",
		"_component":"graphic",
		"_classes":"",
		"_layout":"left",
		"title":"Duplicar um conjunto de anúncios",
		"displayTitle":"",
		"body":"",
		"instruction":"",
		"_graphic": {
			"alt": "Duplicar conjunto de anúncios",
			"src": "course/en/images/dupe_adset.png"
		},
		"_isComplete": true,
		"_pageLevelProgress": {
			"_isEnabled": true
		}
	},
	{
		"_id":"c-330r",
		"_parentId":"b-330",
		"_type":"component",
		"_component":"text",
		"_classes":"texture_wood",
		"_layout":"right",
		"title":"Duplicar um conjunto de anúncios",
		"displayTitle":"",
		"body":"É possível duplicar um conjunto de anúncios e adicioná-lo a:<ul><li>Uma campanha que contém o conjunto de anúncios original.</li><li>Outra campanha existente.</li><li>Uma nova campanha.</li></ul>",
		"instruction":"",
		"_isComplete": true,
		"_pageLevelProgress": {
			"_isEnabled": false
		}
	},
	{
		"_id":"c-340l",
		"_parentId":"b-340",
		"_type":"component",
		"_component":"graphic",
		"_classes":"",
		"_layout":"left",
		"title":"Duplicar um anúncio",
		"displayTitle":"",
		"body":"",
		"instruction":"",
		"_graphic": {
			"alt": "Duplicar campanha",
			"src": "course/en/images/dupe_ad.png"
		},
		"_isComplete": false,
		"_pageLevelProgress": {
			"_isEnabled": true
		}
	},
	{
		"_id":"c-340r",
		"_parentId":"b-340",
		"_type":"component",
		"_component":"text",
		"_classes":"texture_wood",
		"_layout":"right",
		"title":"Duplicar anúncio",
		"displayTitle":"",
		"body":"É possível duplicar um anúncio e adicioná-lo a:<ul><li>Uma campanha existente ou nova.</li><li>Um conjunto de anúncios existente ou novo.</li><li>Vários conjuntos de anúncios.</li></ul>",
		"instruction":"",
		"_pageLevelProgress": {
			"_isEnabled": false
		},
		"_isComplete": true
	},
	{
		"_id":"c-399",
		"_parentId":"b-399",
		"_type":"component",
		"_component":"co-jump",
		"_classes":"color-test",
		"_preLinkBody":"Na próxima seção, veremos como ",
		"_linkBody":"atualizar o criativo, o público, os posicionamentos, o orçamento e a programação da veiculação",
		"_postLinkBody":".",
		"_link":"#/id/co-400",
		"_graphic":"adapt/css/assets/icon_nextPage.png",
		"_pageLevelProgress": {
			"_isEnabled": false
		},
		"_isComplete": true
	},



	{
		"_id":"c-400",
		"_parentId":"b-400",
		"_type":"component",
		"_component":"text",
		"_classes":"",
		"_layout":"full",
		"title":"",
		"displayTitle":"",
		"body":"Ninguém é perfeito. É por isso que o Gerenciador de Anúncios pode ajudá-lo a corrigir um erro de digitação ou link quebrado, a aumentar ou diminuir seu orçamento e a ajustar a veiculação de acordo com o desempenho do anúncio. <br><br>Atualize os objetos de anúncio um a um, alguns de cada vez ou em escala, com o fluxo de trabalho de importação/exportação em massa.",
		"instruction":"",
		"_isComplete": false,
		"_pageLevelProgress": {
			"_isEnabled": false
		}
	},
	{
		"_id":"c-410",
		"_parentId":"b-410",
		"_type":"component",
		"_component":"text",
		"_classes":"",
		"_layout":"full",
		"title":"Tomar decisões com base em dados",
		"displayTitle":"Tomar decisões com base em dados",
		"body":"Antes de ajustar o orçamento ou a veiculação, recomendamos usar o Gerenciador de Anúncios para analisar as métricas de relatórios das campanhas, dos conjuntos de anúncios ou dos anúncios que você estiver pensando em alterar. <br><br>Considere copiar e editar (em vez de apenas editar) as campanhas, os conjuntos de anúncios ou os anúncios, para que seja possível veicular várias versões simultaneamente e ver quais obtêm o melhor desempenho. Após a alteração de um objeto de anúncio, a nova versão substitui a antiga; não há a opção de desfazer, e não há forma de distinguir entre as métricas de antes e depois das edições.",
		"instruction":"",
		"_pageLevelProgress": {
			"_isEnabled": true
		},
		"_isComplete": false
	},
	{
		"_id":"c-420",
		"_parentId":"b-420",
		"_type":"component",
		"_component":"graphic",
		"_classes":"",
		"_layout":"full",
		"title":"Iniciar e parar a veiculação",
		"displayTitle":"Iniciar e parar a veiculação",
		"body":"Para iniciar e parar a veiculação dos anúncios, ative ou desative-os. Quando o botão ao lado da sua campanha, conjunto de anúncios ou anúncio estiver azul, a campanha estará ativa. Para parar a veiculação de uma campanha, conjunto de anúncios ou anúncio, alterne o botão para cinza.",
		"_graphic": {
			"alt": "Ativar ou desativar a veiculação",
			"src": "course/en/images/toggle.png"
		},
		"instruction":"",
		"_isComplete": false,
		"_pageLevelProgress": {
			"_isEnabled": true
		}
	},
	{
		"_id":"c-430",
		"_parentId":"b-430",
		"_type":"component",
		"_component":"graphic",
		"_classes":"",
		"_layout":"full",
		"title":"Hierarquia e veiculação",
		"displayTitle":"",
		"body":"Tenha em mente o seguinte para evitar interrupções nos anúncios:<br><ul><li>Se você desativar uma campanha, todos os anúncios e conjuntos de anúncios incluídos nela serão interrompidos.</li><li>Se você desativar um conjunto de anúncios, todos os anúncios incluídos nele serão interrompidos. </li><li>Para reativar a veiculação do anúncio, pode ser necessário ativar também a campanha e o conjunto de anúncios correspondente.</li></ul><br><br>Se um anúncio ou conjunto de anúncios estiver ativado, mas a campanha à qual ele pertence estiver desativada, o anúncio não será veiculado. Da mesma forma, as estruturas de campanha incompletas (como um conjunto de anúncios que não contém anúncios) não podem ser veiculadas.",
		"instruction":"",
		"_graphic": {
			"alt": "Salvar um relatório",
			"src": "course/en/images/toggle_exceptions.png"
		},
		"_isComplete": true,
		"_pageLevelProgress": {
			"_isEnabled": false
		}
	},

	{
		"_id":"c-440",
		"_parentId":"b-440",
		"_type":"component",
		"_component":"text",
		"_classes":"",
		"_layout":"full",
		"title":"Ajustar veiculação",
		"displayTitle":"",
		"body":"É possível fazer alterações específicas na programação da veiculação, no orçamento e no público-alvo de um anúncio no nível do conjunto de anúncios: continue a ler para saber como.<br><br>Se você <a href='https://www.facebook.com/business/help/991073724257797' target='_blank'>excluir campanhas, conjuntos de anúncios e anúncios</a>, não será possível veicular ou restaurá-los. Os dados de relatórios continuarão disponíveis.",
		"instruction":"",
		"_isComplete": false,
		"_pageLevelProgress": {
			"_isEnabled": true
		}
	},
	{
		"_id":"c-450",
		"_parentId":"b-450",
		"_type":"component",
		"_component":"graphic",
		"_classes":"",
		"_layout":"full",
		"title":"Editar uma única campanha, um único conjunto de anúncios ou anúncio",
		"displayTitle":"Editar uma única campanha, um único conjunto de anúncios ou anúncio",
		"body":"Para editar um único objeto de anúncio, primeiro localize-o no Gerenciador de Anúncios e, em seguida, passe o ponteiro do mouse sobre o nome dele até que o link “editar” seja exibido. ",
		"instruction":"",
		"_graphic": {
			"alt": "Salvar um relatório",
			"src": "course/en/images/am_edit.png"
		},
		"_isComplete": false,
		"_pageLevelProgress": {
			"_isEnabled": true
		}
	},
	{
		"_id":"c-452",
		"_parentId":"b-450",
		"_type":"component",
		"_component":"accordion",
		"_classes":"",
		"_layout":"full",
		"title": "Editar",
		"displayTitle": "",
		"body": "<cite>Observe que, se você editar as opções de direcionamento do nível do <strong>conjunto de anúncios</strong> quando uma campanha estiver sendo veiculada, não será possível desagregar os resultados anteriores e posteriores às alterações. Se for importante entender o impacto das alterações, pause o conjunto de anúncios, duplique-o na campanha, faça as atualizações e, em seguida, ative o novo conjunto de anúncios.</cite>",
		"instruction": "",
		"_items": [
			{
				"title": "Editar uma campanha",
				"body": "No nível da campanha, é possível editar o nome da campanha e o limite de gastos. Não é possível alterar o objetivo de uma campanha existente.<br><br><img src='course/en/images/am_edit_campaign.png' alt=\"\">"
			},
			{
				"title": "Editar um conjunto de anúncios",
				"body": "É possível editar todas as opções definidas no nível do conjunto de anúncios: orçamento e programação, público, posicionamento, otimizações e veiculação.<br><br><img src='course/en/images/am_edit_set.png' alt=\"\"><br>Modifique aqui os detalhes específicos do objetivo, como a oferta conectada a um anúncio de conversão."
			},
			{
				"title": "Editar um anúncio",
				"body": "Edite o criativo e o nome de um anúncio e visualize as alterações no nível do anúncio.<br><br><img src='course/en/images/am_edit_ad.png' alt=\"\">"
			}
		],
		"_isComplete": true,
		"_pageLevelProgress": {
			"_isEnabled": false
		}
 },

	{
		"_id":"c-460",
		"_parentId":"b-460",
		"_type":"component",
		"_component":"graphic",
		"_classes":"",
		"_layout":"full",
		"title":"Editar vários objetos de anúncio de uma só vez",
		"displayTitle":"Editar vários objetos de anúncio de uma só vez",
		"body":"Para editar vários objetos de anúncio simultaneamente, marque as caixas de seleção associadas a cada um, passe o ponteiro do mouse sobre qualquer um deles para exibir um link de edição e clique no link.",
		"instruction":"",
		"_graphic": {
			"alt": "Salvar um relatório",
			"src": "course/en/images/am_edit_multi.png"
		},
		"_isComplete": false,
		"_pageLevelProgress": {
			"_isEnabled": true
		}
	},
	{
		"_id":"c-462",
		"_parentId":"b-460",
		"_type":"component",
		"_component":"text",
		"_classes":"",
		"_layout":"full",
		"title":"Editar vários objetos de anúncio de uma só vez",
		"displayTitle":"",
		"body":"Ao editar várias campanhas, conjuntos de anúncios ou anúncios, lembre-se de que todas as alterações feitas serão aplicadas a todas as campanhas, conjuntos de anúncios ou anúncios selecionados. Por exemplo, se você editar os públicos de dois conjuntos de anúncios ao mesmo tempo, todos os anúncios contidos em ambos os conjuntos de anúncios serão veiculados para o novo público.",
		"instruction":"",
		"_pageLevelProgress": {
			"_isEnabled": false
		},
		"_isComplete": false
	},
	{
		"_id":"c-499",
		"_parentId":"b-499",
		"_type":"component",
		"_component":"co-jump",
		"_classes":"color-test",
		"_preLinkBody":"Grandes organizações e agências de publicidade muitas vezes veiculam milhares de anúncios do Facebook ao mesmo tempo. Para simplificar a criação de anúncios em massa, todos os anunciantes poderão ",
		"_linkBody":"importar e exportar objetos de anúncio",
		"_postLinkBody":" em escala.",
		"_link":"#/id/co-500",
		"_graphic":"adapt/css/assets/icon_nextPage.png",
		"_pageLevelProgress": {
			"_isEnabled": false
		},
		"_isComplete": false
	},


	{
		"_id":"c-500",
		"_parentId":"b-500",
		"_type":"component",
		"_component":"text",
		"_classes":"",
		"_layout":"left",
		"title":"Importar e exportar",
		"displayTitle":"Importar e exportar",
		"body":"Existem duas formas de importar anúncios e criativos em escala usando a função de importação em massa:<br><ul><li>Use um documento separado com tabulações ou um arquivo de valores separados por vírgula (CSV).</li><li>Use o modelo pré-formatado do Excel.</li></ul><br>Para ambos os métodos, primeiro selecione o botão <strong><img src='course/en/images/glyph-export-import.png' alt=\"export-import button\"> Exportar e Importar</strong>.",
		"instruction":"",
		"_isComplete": false,
		"_pageLevelProgress": {
			"_isEnabled": true
		}
	},
	{
		"_id":"c-500r",
		"_parentId":"b-500",
		"_type":"component",
		"_component":"graphic",
		"_classes":"",
		"_layout":"right",
		"title":"",
		"displayTitle":"",
		"body":"",
		"instruction":"",
		"_graphic": {
			"alt": "Interface do usuário - botão Exportar e Importar",
			"src": "course/en/images/import_export.png"
		},
		"_pageLevelProgress": {
			"_isEnabled": false
		},
		"_isComplete": true
	},
	{
		"_id":"c-510",
		"_parentId":"b-510",
		"_type":"component",
		"_component":"text",
		"_classes":"",
		"_layout":"full",
		"title":"Exportar em escala",
		"displayTitle":"Exportar em escala",
		"body":"Se tiver campanhas, conjuntos de anúncios ou anúncios selecionados ao tocar em “Baixar modelo”, você baixará um arquivo de texto ou uma planilha pré-formatada com todas as informações que eles contêm em massa. Isso pode ser útil caso você queira editar objetos de anúncio existentes, ou criar novos com base em outros existentes, em escala.",
		"instruction":"",
		"_isComplete": true,
		"_pageLevelProgress": {
			"_isEnabled": true
		}
	},
	{
		"_id":"c-520",
		"_parentId":"b-520",
		"_type":"component",
		"_component":"graphic",
		"_classes":"",
		"_layout":"full",
		"title":"Importar em escala ",
		"displayTitle":"Importar em escala ",
		"body":"Baixe o modelo do Excel para simplificar o carregamento em massa. Como alternativa, carregue (ou copie e cole) um CSV e combine manualmente os nomes dos campos.<br><br>Quando tiver o criativo pronto, em texto delimitado ou em formatos do Excel, selecione “Importar anúncios em massa” para carregar o conteúdo e quaisquer imagens associadas.",
		"instruction":"",
		"_graphic": {
			"alt": "Importação em massa de texto, arquivo do Excel, imagens",
			"src": "course/en/images/bulk_import.png"
		},
		"_isComplete": true,
		"_pageLevelProgress": {
			"_isEnabled": true
		}
	},
	{
		"_id":"c-530",
		"_parentId":"b-530",
		"_type":"component",
		"_component":"text",
		"_classes":"",
		"_layout":"full",
		"title":"Editar em escala",
		"displayTitle":"Editar em escala usando a ferramenta de importação e exportação",
		"body":"Para editar em massa, selecione o botão Exportar e Importar, e escolha <strong>Exportar tudo</strong>. <br><br>Você também pode marcar as caixas de seleção por campanhas, conjuntos de anúncios ou anúncios específicos para agrupá-los, baixá-los e editá-los como um lote. Faça edições no Excel e importe o arquivo atualizado. Em seguida, revise as alterações e publique. <!--You can find more detailed instructions in the Help Center.<br><br><center style='background-color:red;color:white;'>NOTE: Help Center + Facebook for Business links are not available yet.<br>They'll be added as soon as they go live, and before this course is published.</center><br><br><cite>Explore bulk operations in greater detail on the Facebook for Business website, including a full list of fields included in the upload template.</cite>-->",
		"instruction":"",
		"_pageLevelProgress": {
			"_isEnabled": true
		},
		"_isComplete": true
	},
	{
		"_id":"c-599",
		"_parentId":"b-599",
		"_type":"component",
		"_component":"co-jump",
		"_classes":"color-test",
		"_preLinkBody":"A seguir, vamos explorar outras ",
		"_linkBody":"funções avançadas",
		"_postLinkBody":" do Gerenciador de Anúncios.",
		"_link":"#/id/co-600",
		"_graphic":"adapt/css/assets/icon_nextPage.png",
		"_pageLevelProgress": {
			"_isEnabled": false
		},
		"_isComplete": false
	},



	{
		"_id":"c-600",
		"_parentId":"b-600",
		"_type":"component",
		"_component":"text",
		"_classes":"",
		"_layout":"full",
		"title":"",
		"displayTitle":"",
		"body":"Alguns anunciantes e agências gerenciam milhares de anúncios do Facebook regularmente. As ferramentas e funções a seguir foram criadas com os grandes anunciantes em mente, mas qualquer pessoa pode usá-las para organizar e otimizar a publicidade do Facebook.",
		"instruction":"",
		"_isComplete": false,
		"_pageLevelProgress": {
			"_isEnabled": false
		}
	},
	{
		"_id":"c-610",
		"_parentId":"b-610",
		"_type":"component",
		"_component":"graphic",
		"_classes":"",
		"_layout":"full",
		"title":"Agrupar as campanhas com marcações",
		"displayTitle":"Agrupar as campanhas com marcações",
		"body":"As marcações organizam as campanhas em grupos para que seja mais fácil encontrá-las e trabalhar com elas. ",
		"instruction":"",
		"_graphic": {
			"alt": "UI de marcação",
			"src": "course/en/images/tags.png"
		},
		"_isComplete": false,
		"_pageLevelProgress": {
			"_isEnabled": true
		}
	},
	{
		"_id":"c-612",
		"_parentId":"b-610",
		"_type":"component",
		"_component":"text",
		"_classes":"",
		"_layout":"full",
		"title":"",
		"displayTitle":"",
		"body":"<ol><li>Navegue até a área de <strong>Campanhas</strong> do Gerenciador de Anúncios.<br><cite>Observação: pode ser necessário ajustar os filtros para exibir as campanhas que você deseja marcar.</cite></li><br><li>Selecione a(s) campanha(s) que deseja marcar e clique no botão <strong><img src='course/en/images/tag.png' alt=\"tag button\"> Marcar</strong>.</li><br><li>Insira um novo nome para a marcação ou selecione uma marcação existente.</li><br><li>Clique em <strong>Aplicar</strong>. Assim, você salvará a marcação e poderá aplicá-la a outras campanhas.</li></ol>",
		"instruction":"",
		"_isComplete": false,
		"_pageLevelProgress": {
			"_isEnabled": false
		}
	},
	{
		"_id":"c-620",
		"_parentId":"b-620",
		"_type":"component",
		"_component":"graphic",
		"_classes":"",
		"_layout":"full",
		"title":"Dividir públicos",
		"displayTitle":"Dividir públicos",
		"body":"O teste A/B permite que você teste diferentes variáveis das suas campanhas de anúncios para saber qual funciona melhor e assim aproveitar o sucesso e aprimorar os planos de mídia futuros.<br><br>O Gerenciador de Anúncios permite dividir públicos no nível do conjunto de anúncios para entender melhor como as seleções de veiculação afetam o desempenho da campanha - por exemplo, para testar o desempenho do seu anúncio quando você direciona para idades ou gêneros específicos. Você pode dividir um público quantas vezes quiser.<br><br>Com o conjunto de anúncios selecionado, escolha <strong>Dividir públicos</strong> no menu suspenso <strong><img src='course/en/images/glyph-copy.png' alt=\"duplicate button\"> Duplicar</strong>.",
		"instruction":"",
		"_graphic": {
			"alt": "Importação em massa de texto, arquivo do Excel, imagens",
			"src": "course/en/images/split_test.png"
		},
		"_isComplete": false,
		"_pageLevelProgress": {
			"_isEnabled": true
		}
	},
	{
		"_id":"c-622",
		"_parentId":"b-620",
		"_type":"component",
		"_component":"graphic",
		"_classes":"",
		"_layout":"full",
		"title":"Realizar testes A/B",
		"displayTitle":"",
		"body":"Vamos descobrir se estes anúncios, originalmente direcionados para todos os pais de crianças pequenas, funcionam melhor somente com os pais, somente com as mães ou com os pais em geral. Criaremos dois novos conjuntos de anúncios: um direcionado somente aos homens e o outro às mulheres. O conjunto de anúncios original, que será veiculado para todos os gêneros, permanece ativo. ",
		"instruction":"",
		"_graphic": {
			"alt": "Importação em massa de texto, arquivo do Excel, imagens",
			"src": "course/en/images/split_audience.png"
		},
		"_isComplete": false,
		"_pageLevelProgress": {
			"_isEnabled": true
		}
	},
	{
		"_id":"c-624",
		"_parentId":"b-620",
		"_type":"component",
		"_component":"text",
		"_classes":"",
		"_layout":"full",
		"title":"",
		"displayTitle":"",
		"body":"Ao dividir um público, você poderá optar por dividir seu orçamento entre novos conjuntos de anúncios ou, em vez disso, duplicar os orçamentos. Além disso, é possível optar por criar novos orçamentos para os novos conjuntos de anúncios. <a href='https://www.facebook.com/business/help/1738164643098669' target='_blank'>Saiba mais sobre o teste A/B</a> com o Facebook para Empresas.",
		"instruction":"",
		"_isComplete": false,
		"_pageLevelProgress": {
			"_isEnabled": false
		}
	},
	{
		"_id":"c-630",
		"_parentId":"b-630",
		"_type":"component",
		"_component":"graphic",
		"_classes":"",
		"_layout":"full",
		"title":"Estabelecer regras automatizadas",
		"displayTitle":"Estabelecer regras automatizadas",
		"body":"É possível criar regras no nível da campanha, conjunto de anúncios ou anúncio. As regras atualizam a veiculação do anúncio ou notificam você sobre alterações em suas campanhas, conjuntos de anúncios ou anúncios. As regras podem incluir o seguinte:<br><br><ul><li>Desativação do anúncio se ele não apresentar bom desempenho.</li><li>Aumento do orçamento de um conjunto de anúncios se mais pessoas clicarem nos anúncios.</li><li>Envio de uma notificação para seu endereço de email se o número geral de pessoas que visualizam seu anúncio diminuir para abaixo de um determinado número.</li></ul><br>Para criar uma regra:<ol><li>Selecione um ou mais objetos de anúncio para ativar o botão <strong>Criar regra</strong> e clique nele.</li>",
		"instruction":"",
		"_graphic": {
			"alt": "Criar uma regra:",
			"src": "course/en/images/rule_add.png"
		},
		"_isComplete": false,
		"_pageLevelProgress": {
			"_isEnabled": true
		}
	},
	{
		"_id":"c-640",
		"_parentId":"b-640",
		"_type":"component",
		"_component":"graphic",
		"_classes":"",
		"_layout":"full",
		"title":"Estabelecer regras automatizadas",
		"displayTitle":"",
		"body":"<ol start='2'><li>Na caixa de diálogo Criar regra, selecione <a href='https://www.facebook.com/business/help/975877422460996' target='_blank'>o critério que aciona a regra</a>, <a href='https://www.facebook.com/business/help/192277077825914' target='_blank'>a ação que sua regra executa</a> nos objetos de anúncio selecionados, e qual campanha, conjunto de anúncios ou anúncio ativo você deseja que a regra afete.</li>",
		"instruction":"",
		"_graphic": {
			"alt": "Definir uma regra",
			"src": "course/en/images/rule_create.png"
		},
		"_isComplete": false,
		"_pageLevelProgress": {
			"_isEnabled": false
		}
	},
	{
		"_id":"c-650",
		"_parentId":"b-650",
		"_type":"component",
		"_component":"graphic",
		"_classes":"",
		"_layout":"full",
		"title":"Gerenciar regras",
		"displayTitle":"",
		"body":"Para gerenciar regras, navegue para a área <strong>Regras automatizadas</strong> na sua conta de anúncios, onde você poderá editar as regras, ou ativá-las e desativá-las:",
		"instruction":"",
		"_graphic": {
			"alt": "Gerenciar regras",
			"src": "course/en/images/rules_manage.png"
		},
		"_isComplete": false,
		"_pageLevelProgress": {
			"_isEnabled": true
		}
	},
	{
		"_id":"c-652",
		"_parentId":"b-650",
		"_type":"component",
		"_component":"text",
		"_classes":"",
		"_layout":"full",
		"title":"",
		"displayTitle":"",
		"body":"Embora as regras possam simplificar o gerenciamento de anúncios, você ainda deve continuar verificando o Gerenciador de Anúncios.",
		"instruction":"",
		"_isComplete": false,
		"_pageLevelProgress": {
			"_isEnabled": false
		}
	},
	{
		"_id":"c-699",
		"_parentId":"b-699",
		"_type":"component",
		"_component":"co-jump",
		"_classes":"color-test",
		"_preLinkBody":"Abordamos muitas informações, por isso, vamos fazer uma breve ",
		"_linkBody":"verificação de conhecimento",
		"_postLinkBody":"!",
		"_link":"#/id/co-700",
		"_graphic":"adapt/css/assets/icon_nextPage.png",
		"_pageLevelProgress": {
			"_isEnabled": false
		},
		"_isComplete": false
	},



	{
		"_id":"c-700",
		"_parentId":"b-700",
		"_type":"component",
		"_component":"mcq",
		"_classes":"",
		"_layout":"full",
		"_attempts":1,
		"_questionWeight":1,
		"_isRandom":false,
		"_selectable":1,
		"title": "Pergunta 1 de 4",
		"displayTitle": "Pergunta 1 de 4",
		"body": "Você editou um conjunto de anúncios. O que essa alteração afeta?",
		"instruction": "",
		"_setCompletionOn": "inview",
		"_items": [
			{
				"text": "Somente o anúncio",
				"_shouldBeSelected":false
			},
			{
				"text": "Somente o conjunto de anúncios",
				"_shouldBeSelected":false
			},
			{
				"text": "O conjunto de anúncios e outros anúncios que ele contém",
				"_shouldBeSelected":true
			},
			{
				"text": "O conjunto de anúncios e campanha que o contém",
				"_shouldBeSelected":false
			}
		],
		"_feedback":{
			"correct":"Exatamente! As atualizações nos conjuntos de anúncios afetam o conjunto de anúncios e os anúncios contidos nele. As alterações no nível do conjunto de anúncios não fluem de modo ascendente para as campanhas correspondentes.",
			"_incorrect": {
				"notFinal": "",
				"final": "Não exatamente. As atualizações nos conjuntos de anúncios afetam o conjunto de anúncios e os anúncios contidos nele. As alterações no nível do conjunto de anúncios não fluem de modo ascendente para as campanhas correspondentes."
			}
		},
		"_buttons": {
				"_submit": {
					"buttonText": "Enviar",
					"ariaLabel": "Selecione aqui para enviar sua resposta."
				},
				"_reset": {
					"buttonText": "Redefinir",
					"ariaLabel": ""
				},
				"_showCorrectAnswer": {
					"buttonText": "Resposta certa",
					"ariaLabel": ""
				},
				"_hideCorrectAnswer": {
					"buttonText": "Minha resposta",
					"ariaLabel": ""
				},
				"_showFeedback": {
					"buttonText": "Mostrar feedback",
					"ariaLabel": ""
				},
				"remainingAttemptsText": "tentativas restantes",
				"remainingAttemptText": "última tentativa"
			},
		"_pageLevelProgress": {
			"_isEnabled": true
		},
		"_isComplete": true
	},
	{
		"_id":"c-710",
		"_parentId":"b-710",
		"_type":"component",
		"_component":"mcq",
		"_classes":"",
		"_layout":"full",
		"_attempts":1,
		"_questionWeight":1,
		"_isRandom":false,
		"_selectable":1,
		"title": "Pergunta 2 de 4",
		"displayTitle": "Pergunta 2 de 4",
		"body": "Qual destas ações é um exemplo de uma ação que é possível automatizar com as regras?",
		"instruction": "",
		"_setCompletionOn": "inview",
		"_items": [
			{
				"text": "Dividir públicos para otimizar a veiculação",
				"_shouldBeSelected":false
			},
			{
				"text": "Ajustar o orçamento do anúncio com base no desempenho",
				"_shouldBeSelected":true
			},
			{
				"text": "Organizar campanhas com as marcações de campanha",
				"_shouldBeSelected":false
			},
			{
				"text": "Personalizar colunas ou relatórios exportáveis",
				"_shouldBeSelected":false
			}
		],
		"_feedback":{
			"correct":"Correto! Uma ação automática (como aumentar um orçamento) é acionada por uma causa (como uma alteração no desempenho).",
			"_incorrect": {
				"notFinal": "",
				"final": "Não exatamente. Uma ação automática (como aumentar um orçamento) é acionada por uma causa (como uma alteração no desempenho)."
			}
		},
		"_buttons": {
				"_submit": {
					"buttonText": "Enviar",
					"ariaLabel": "Selecione aqui para enviar sua resposta."
				},
				"_reset": {
					"buttonText": "Redefinir",
					"ariaLabel": ""
				},
				"_showCorrectAnswer": {
					"buttonText": "Resposta certa",
					"ariaLabel": ""
				},
				"_hideCorrectAnswer": {
					"buttonText": "Minha resposta",
					"ariaLabel": ""
				},
				"_showFeedback": {
					"buttonText": "Mostrar feedback",
					"ariaLabel": ""
				},
				"remainingAttemptsText": "tentativas restantes",
				"remainingAttemptText": "última tentativa"
			},
		"_pageLevelProgress": {
			"_isEnabled": true
		},
		"_isComplete": true
	},
	{
		"_id":"c-720",
		"_parentId":"b-720",
		"_type":"component",
		"_component":"mcq",
		"_classes":"",
		"_layout":"full",
		"_attempts":1,
		"_questionWeight":1,
		"_isRandom":false,
		"_selectable":1,
		"title": "Pergunta 3 de 4",
		"displayTitle": "Pergunta 3 de 4",
		"body": "Qual destas ferramentas é possível usar para separar por faixa etária e gênero para direcionamento para diferentes públicos em um conjunto de anúncios?",
		"instruction": "",
		"_setCompletionOn": "inview",
		"_items": [
			{
				"text": "Dividir público",
				"_shouldBeSelected":true
			},
			{
				"text": "Excel",
				"_shouldBeSelected":false
			},
			{
				"text": "Edição em massa",
				"_shouldBeSelected":false
			},
			{
				"text": "Duplicar",
				"_shouldBeSelected":false
			}
		],
		"_feedback":{
			"correct":"Correto! A ferramenta Dividir público pode ser usada para dividir por faixa etária e gênero dentro de um conjunto de anúncios.",
			"_incorrect": {
				"notFinal": "",
				"final": "Infelizmente está errado. A ferramenta Dividir público pode ser usada para dividir por faixa etária e gênero dentro de um conjunto de anúncios."
			}
		},
		"_buttons": {
				"_submit": {
					"buttonText": "Enviar",
					"ariaLabel": "Selecione aqui para enviar sua resposta."
				},
				"_reset": {
					"buttonText": "Redefinir",
					"ariaLabel": ""
				},
				"_showCorrectAnswer": {
					"buttonText": "Resposta certa",
					"ariaLabel": ""
				},
				"_hideCorrectAnswer": {
					"buttonText": "Minha resposta",
					"ariaLabel": ""
				},
				"_showFeedback": {
					"buttonText": "Mostrar feedback",
					"ariaLabel": ""
				},
				"remainingAttemptsText": "tentativas restantes",
				"remainingAttemptText": "última tentativa"
			},
		"_pageLevelProgress": {
			"_isEnabled": true
		},
		"_isComplete": true
	},
	{
		"_id":"c-730",
		"_parentId":"b-730",
		"_type":"component",
		"_component":"mcq",
		"_classes":"",
		"_layout":"full",
		"_attempts":1,
		"_questionWeight":1,
		"_isRandom":false,
		"_selectable":1,
		"title": "Pergunta 4 de 4",
		"displayTitle": "Pergunta 4 de 4",
		"body": "Qual ação pode afetar a continuidade dos relatórios de dados? ",
		"instruction": "",
		"_setCompletionOn": "inview",
		"_items": [
			{
				"text": "Edição de um conjunto de anúncios",
				"_shouldBeSelected":true
			},
			{
				"text": "Duplicação de um conjunto de anúncios",
				"_shouldBeSelected":false
			},
			{
				"text": "Exportação de um conjunto de anúncios",
				"_shouldBeSelected":false
			},
			{
				"text": "Exclusão de um conjunto de anúncios",
				"_shouldBeSelected":false
			}
		],
		"_feedback":{
			"correct":"Isso mesmo! Pode ser difícil diferenciar métricas de anúncios de antes e depois de uma edição. As métricas de anúncios duplicados, exportados ou excluídos não são afetadas por essas ações.",
			"_incorrect": {
				"notFinal": "",
				"final": "Não exatamente. Pode ser difícil diferenciar métricas de anúncios de antes e depois de uma edição. As métricas de anúncios duplicados, exportados ou excluídos não são afetadas por essas ações. "
			}
		},
		"_buttons": {
				"_submit": {
					"buttonText": "Enviar",
					"ariaLabel": "Selecione aqui para enviar sua resposta."
				},
				"_reset": {
					"buttonText": "Redefinir",
					"ariaLabel": ""
				},
				"_showCorrectAnswer": {
					"buttonText": "Resposta certa",
					"ariaLabel": ""
				},
				"_hideCorrectAnswer": {
					"buttonText": "Minha resposta",
					"ariaLabel": ""
				},
				"_showFeedback": {
					"buttonText": "Mostrar feedback",
					"ariaLabel": ""
				},
				"remainingAttemptsText": "tentativas restantes",
				"remainingAttemptText": "última tentativa"
			},
		"_pageLevelProgress": {
			"_isEnabled": true
		},
		"_isComplete": true
	},
	{
		"_id":"c-799",
		"_parentId":"b-799",
		"_type":"component",
		"_component":"co-jump",
		"_classes":"color-test",
		"_preLinkBody":"Se você não tiver recebido um pop-up indicando que concluiu este curso,",
		"_linkBody":"clique aqui",
		"_postLinkBody":" para verificar se todas as barras de progresso estão preenchidas.",
		"_link":"#",
		"_graphic":"adapt/css/assets/complete_icon_small.png",
		"_pageLevelProgress": {
			"_isEnabled": false
		},
		"_isComplete": true
	}
]
